{
  "version": "5",
  "dialect": "pg",
  "id": "1ccc0827-a355-4580-92fe-286ab187431d",
  "prevId": "19b250c8-d23d-46a4-b292-bd11401e072e",
  "tables": {
    "attendances": {
      "name": "attendances",
      "schema": "",
      "columns": {
        "id": {
          "name": "id",
          "type": "uuid",
          "primaryKey": true,
          "notNull": true,
          "default": "gen_random_uuid()"
        },
        "date": {
          "name": "date",
          "type": "text",
          "primaryKey": false,
          "notNull": true
        },
        "studentId": {
          "name": "studentId",
          "type": "uuid",
          "primaryKey": false,
          "notNull": true
        }
      },
      "indexes": {},
      "foreignKeys": {
        "attendances_studentId_students_id_fk": {
          "name": "attendances_studentId_students_id_fk",
          "tableFrom": "attendances",
          "tableTo": "students",
          "columnsFrom": [
            "studentId"
          ],
          "columnsTo": [
            "id"
          ],
          "onDelete": "no action",
          "onUpdate": "no action"
        }
      },
      "compositePrimaryKeys": {},
      "uniqueConstraints": {
        "attendances_date_studentId_unique": {
          "name": "attendances_date_studentId_unique",
          "nullsNotDistinct": false,
          "columns": [
            "date",
            "studentId"
          ]
        }
      }
    },
    "class": {
      "name": "class",
      "schema": "",
      "columns": {
        "id": {
          "name": "id",
          "type": "uuid",
          "primaryKey": true,
          "notNull": true,
          "default": "gen_random_uuid()"
        },
        "name": {
          "name": "name",
          "type": "text",
          "primaryKey": false,
          "notNull": false
        }
      },
      "indexes": {},
      "foreignKeys": {},
      "compositePrimaryKeys": {},
      "uniqueConstraints": {}
    },
    "students": {
      "name": "students",
      "schema": "",
      "columns": {
        "id": {
          "name": "id",
          "type": "uuid",
          "primaryKey": true,
          "notNull": true,
          "default": "gen_random_uuid()"
        },
        "name": {
          "name": "name",
          "type": "text",
          "primaryKey": false,
          "notNull": false
        },
        "date": {
          "name": "date",
          "type": "text",
          "primaryKey": false,
          "notNull": false
        },
        "father": {
          "name": "father",
          "type": "text",
          "primaryKey": false,
          "notNull": false
        },
        "phone": {
          "name": "phone",
          "type": "text",
          "primaryKey": false,
          "notNull": false
        },
        "phone2": {
          "name": "phone2",
          "type": "text",
          "primaryKey": false,
          "notNull": false,
          "default": "''"
        },
        "address": {
          "name": "address",
          "type": "text",
          "primaryKey": false,
          "notNull": false,
          "default": "''"
        },
        "classId": {
          "name": "classId",
          "type": "uuid",
          "primaryKey": false,
          "notNull": true
        }
      },
      "indexes": {},
      "foreignKeys": {
        "students_classId_class_id_fk": {
          "name": "students_classId_class_id_fk",
          "tableFrom": "students",
          "tableTo": "class",
          "columnsFrom": [
            "classId"
          ],
          "columnsTo": [
            "id"
          ],
          "onDelete": "no action",
          "onUpdate": "no action"
        }
      },
      "compositePrimaryKeys": {},
      "uniqueConstraints": {}
    },
    "user": {
      "name": "user",
      "schema": "",
      "columns": {
        "id": {
          "name": "id",
          "type": "uuid",
          "primaryKey": true,
          "notNull": true,
          "default": "gen_random_uuid()"
        },
        "name": {
          "name": "name",
          "type": "text",
          "primaryKey": false,
          "notNull": false
        },
        "password": {
          "name": "password",
          "type": "text",
          "primaryKey": false,
          "notNull": true
        }
      },
      "indexes": {},
      "foreignKeys": {},
      "compositePrimaryKeys": {},
      "uniqueConstraints": {}
    }
  },
  "enums": {},
  "schemas": {},
  "_meta": {
    "schemas": {},
    "tables": {},
    "columns": {}
  }
}